{
  "description": "Please select JAVA version:",
  "key": "JAVA_VERSION",
  "prompt": true,
  "options": {
    "OpenJDK 1.6": {
      "value": "java-1.6.0-openjdk",
      "link": "jira_6_db.json"
    },
    "OpenJDK 1.7": {
      "value": "java-1.7.0-openjdk",
      "link": "jira_6_db.json"
    },
    "Oracle 1.6": {
      "value": "java-6-oracle",
      "link": "jira_6_db.json"
    },
    "Oracle 1.7": {
      "value": "java-7-oracle",
      "link": "jira_6_db.json"
    }
  }
}