{
  "description": "Please select JAVA version:",
  "key": "JAVA_VERSION",
  "prompt": false,
  "options": {
    "OpenJDK 1.6": {
      "value": "java-1.6.0-openjdk",
      "link": "jira_6_db.json"
    }
  }
}