{
  "description": "This will create the default JIRA home data",
  "key": "JIRA_HOME_DATA",
  "prompt": false,
  "options": {
    "JIRA Home": {
      "value": "http://bitbucket.org/atlassian/jira-box/downloads/jira_6_home_hsql_v1.tar.gz",
      "link": "jira_6_3_15_jre.json"
    }
  }
}